1 10 20
100 200 125
201 210 89
900 1000 174
1034 3129 217
6145 7288 262
6207 6426 200
8270 8797 234
6485 7154 257
8361 9986 260
1496 6689 262
6732 7800 257
2667 6098 238
8478 8776 216
1868 7142 262
659 3945 238
2958 8388 262
3022 3580 199
28 3640 217
6358 6886 244
9810 9957 242
2140 5792 238
4634 6134 236
8816 9873 260
4655 7182 262
577 5279 238
4617 7932 262
5694 8508 262
2005 8925 262
9205 9747 260
7070 7976 252
1948 4626 238
9201 9507 260
3743 8508 262
3375 6924 262
2866 6385 262
6107 9917 262
6336 6986 257
5544 6151 236
3289 6743 262
3491 8157 262
7649 9792 260
1969 6402 262
4512 9881 262
4264 5643 236
1260 3933 238
5825 8607 262
8921 9846 260
436 2598 209
79 9231 262
7993 9206 247
7821 8184 252
5394 8855 262
6197 9998 260
9131 9755 260
6107 9145 262
3220 7032 262
5220 6061 236
6467 6841 244
4991 7544 262
5621 8728 262
4653 9144 262
549 6033 238
2706 5714 238
5156 7139 262
5486 6449 262
2069 5488 238
5951 6861 262
2948 4446 238
671 1636 182
1587 7213 262
3961 5198 215
7482 8081 252
1626 3890 238
7916 8055 252
305 4768 238
7936 9597 260
4514 9178 262
9516 9631 198
2682 8934 262
5065 6018 236
7724 8079 252
5940 9089 262
5645 7700 262
5420 6842 262
246 9279 262
249 3401 217
1237 6775 262
7089 9836 260
3083 3203 199
8416 9452 260
3869 9754 262
2981 4192 238
9849 9931 242
3066 5103 238
8430 9041 247
3784 8768 262
6885 7254 257
358 5641 238
7734 8433 252
1113 6619 262
3418 4587 238
9867 9992 242
4519 7817 262
3767 6009 236
8627 9237 247
9113 9451 260
3225 5809 238
7122 9521 260
2717 6533 262
9964 9973 136
5149 8722 262
244 9972 262
3747 7252 262
6468 8827 257
1543 5353 238
7315 9883 260
645 8631 262
4553 4968 210
8057 8946 234
6604 6989 257
2898 4699 238
1516 6810 262
5435 5800 236
4687 6474 262
2958 4485 238
9865 9986 242
4109 5151 215
4691 8441 262
3460 9157 262
5335 5407 192
2200 4969 238
7450 8709 252
8435 8715 203
8295 9788 260
8050 8749 234
9644 9683 185
680 8918 262
3775 9700 262
62 8809 262
3354 5585 238
1259 9965 262
866 2120 182
3932 5017 215
6817 7940 257
2545 2636 191
266 8412 262
5378 6138 236
3108 8545 262
5143 7740 262
3116 8653 262
7631 8701 252
6469 7292 257
1064 1569 182
8027 9757 260
4546 6713 262
9124 9350 260
8998 9613 260
5330 5908 236
34 5877 238
9858 9930 242
3654 5110 238
8228 8573 234
6972 9370 260
6457 7368 257
1285 8123 262
1381 5807 238
5419 7053 262
190 9814 262
8943 9590 260
3026 7567 262
1874 9145 262
8671 8804 216
3230 4341 238
2285 5810 238
4652 7179 262
3511 9125 262
522 2174 182
3823 6888 262
5119 5958 236
9850 9914 242
6445 9855 260
2421 2573 209
5587 9468 262
5380 5496 192
9919 9949 167
3970 7396 262
939 1101 169
3130 3254 199
910 5058 238
4102 7908 262
8598 9348 260
4151 7829 262
4643 6009 236
244 2822 209
5605 5990 218
4670 9859 262
4380 8114 262
5058 6855 262
5539 6755 262
1238 8369 262
1265 1586 177
9989 9999 180
9975 9980 167
7298 8710 252
491 7774 262
6064 8864 262
7019 7163 195
1879 2246 183
6088 8677 262
5857 7016 262
7459 8700 252
7335 7944 239
4418 6193 262
8569 8784 216
5754 9056 262
4465 5871 236
5118 8375 262
8852 9389 260
5849 9816 262
7089 9482 260
1126 3211 217
1253 5997 238
149 6132 238
6639 6922 226
3155 8090 262
5559 6694 262
508 1284 182
6650 9678 260
8654 9306 260
9475 9966 242
9882 9923 242
7146 8303 252
709 8451 262
1589 5135 238
7106 9059 252
3886 8703 262
5764 8402 262
1191 5755 238
1285 7041 262
6492 9965 260
3809 3912 176
1486 2362 183
4691 6322 262
5868 9691 262
3766 3909 176
2438 4875 238
8971 9005 185
5425 6139 236
6702 8994 257
5772 5950 218
4034 7333 262
4376 6710 262
9214 9667 260
1566 6485 262
1461 7127 262
9085 9771 260
7636 9705 260
8429 9496 260
2621 3522 217
5639 6243 262
9068 9865 260
1752 9879 262
7531 7623 177
8063 8933 234
6006 6154 187
2857 7133 262
9649 9852 211
8080 9766 260
5042 9990 262
2709 4896 238
7049 8708 252
8294 8531 234
9273 9348 185
9125 9680 260
1961 6668 262
6501 7248 257
5591 6367 262
212 5641 238
2807 8748 262
8395 9471 260
7633 9549 260
8253 9059 247
4361 9318 262
6217 7288 257
6262 9061 257
4283 4486 215
862 6272 262
5429 7728 262
7991 9122 247
5734 8291 262
5641 5775 205
9951 9961 92
9097 9167 198
2065 3500 217
9543 9757 198
7843 8936 252
9997 9999 180
5837 6964 262
4190 5571 236
